{
  "mtn": [
    {
      "volume": "500MB",
      "product_code": "MTN500MB",
      "price": 250
    },
    {
      "volume": "1GB",
      "product_code": "MTN1GB",
      "price": 450
    },
    {
      "volume": "2GB",
      "product_code": "MTN2GB",
      "price": 900
    },
    {
      "volume": "5GB",
      "product_code": "MTN5GB",
      "price": 2250
    }
  ],

  "9mobile": [
    {
      "volume": "250MB",
      "product_code": "MOB250",
      "price": 250
    },
    {
      "volume": "500MB",
      "product_code": "MOB500",
      "price": 350
    },
    {
      "volume": "1GB",
      "product_code": "MOB1GB",
      "price": 650
    },
    {
      "volume": "1.5GB",
      "product_code": "MOB1O5GB",
      "price": 1000
    },
    {
      "volume": "2GB",
      "product_code": "MOB2GB",
      "price": 1250
    },
    {
      "volume": "3GB",
      "product_code": "MOB3GB",
      "price": 1900
    },
    {
      "volume": "5GB",
      "product_code": "MOB5GB",
      "price": 3100
    },
    {
      "volume": "11.5GB",
      "product_code": "MOB11O5GB",
      "price": 7000
    },
    {
      "volume": "15GB",
      "product_code": "MOB15GB",
      "price": 8850
    },
    {
      "volume": "27.5GB",
      "product_code": "MOB27O5GB",
      "price": 16000
    }
  ],
  "glo": [
    {
      "volume": "1.6GB or 2GB",
      "product_code": "GLO2GB",
      "price": 850
    },
    {
      "volume": "3.65GB or 4.5GB",
      "product_code": "GLO4O5GB",
      "price": 1700
    },
    {
      "volume": "5.75GB or 7.2GB",
      "product_code": "GLO7O2GB",
      "price": 2125
    },
    {
      "volume": "7GB or 8.25GB",
      "product_code": "GLO8O25GB",
      "price": 2550
    },
    {
      "volume": "10GB or 12.5GB",
      "product_code": "GLO12O5GB",
      "price": 3400
    },
    {
      "volume": "12.5GB or 15.6GB",
      "product_code": "GLO15O6GB",
      "price": 4250
    },
    {
      "volume": "20GB or 25GB",
      "product_code": "GLO25GB",
      "price": 6800
    },
    {
      "volume": "26GB or 32.5GB",
      "product_code": "GLO32O5GB",
      "price": 8500
    },
    {
      "volume": "42GB or 52.5GB",
      "product_code": "GLO52O5GB",
      "price": 12750
    }
  ]
}